; ModuleID = 'probe0.9a4450daf6b00879-cgu.0'
source_filename = "probe0.9a4450daf6b00879-cgu.0"
target datalayout = "e-m:o-i64:64-i128:128-n32:64-S128"
target triple = "arm64-apple-macosx11.0.0"

!llvm.module.flags = !{!0}
!llvm.ident = !{!1}

!0 = !{i32 8, !"PIC Level", i32 2}
!1 = !{!"rustc version 1.77.2 (25ef9e3d8 2024-04-09) (Homebrew)"}
